{"failedCount":0,"prefixedPath":"classpath:karateapi\/userDetails.feature","packageQualifiedName":"karateapi.userDetails","loopIndex":-1,"relativePath":"karateapi\/userDetails.feature","scenarioResults":[{"sectionIndex":0,"stepResults":[{"result":{"nanos":874400,"startTime":1727487081762,"endTime":1727487081763,"millis":0.8744,"status":"passed"},"step":{"line":4,"prefix":"Given","index":0,"text":"url 'https:\/\/reqres.in\/api\/users\/2'"}},{"result":{"nanos":91321300,"startTime":1727487081763,"endTime":1727487081854,"millis":91.3213,"status":"passed"},"step":{"line":5,"prefix":"When","index":1,"text":"method GET"},"stepLog":"20:31:21.764 request:\n1 > GET https:\/\/reqres.in\/api\/users\/2\n1 > Host: reqres.in\n1 > Connection: Keep-Alive\n1 > User-Agent: Apache-HttpClient\/4.5.11 (Java\/21.0.2)\n1 > Accept-Encoding: gzip,deflate\n\n\n20:31:21.852 response time in milliseconds: 87\n1 < 200\n1 < Date: Sat, 28 Sep 2024 01:31:22 GMT\n1 < Content-Type: application\/json; charset=utf-8\n1 < Transfer-Encoding: chunked\n1 < Connection: keep-alive\n1 < Report-To: {\"group\":\"heroku-nel\",\"max_age\":3600,\"endpoints\":[{\"url\":\"https:\/\/nel.heroku.com\/reports?ts=1727474988&sid=c4c9725f-1ab0-44d8-820f-430df2718e11&s=xJeu9x%2Bb8EfVU58FYPwBMWci1nKfo49PJtN8dP7Mito%3D\"}]}\n1 < Reporting-Endpoints: heroku-nel=https:\/\/nel.heroku.com\/reports?ts=1727474988&sid=c4c9725f-1ab0-44d8-820f-430df2718e11&s=xJeu9x%2Bb8EfVU58FYPwBMWci1nKfo49PJtN8dP7Mito%3D\n1 < Nel: {\"report_to\":\"heroku-nel\",\"max_age\":3600,\"success_fraction\":0.005,\"failure_fraction\":0.05,\"response_headers\":[\"Via\"]}\n1 < X-Powered-By: Express\n1 < Access-Control-Allow-Origin: *\n1 < Etag: W\/\"118-pbdwwFo9SKNhD3Lx5iHJyngpq00\"\n1 < Via: 1.1 vegur\n1 < Cache-Control: max-age=14400\n1 < CF-Cache-Status: HIT\n1 < Age: 4890\n1 < Vary: Accept-Encoding\n1 < Server: cloudflare\n1 < CF-RAY: 8c9ff9398f5c61ae-ORD\n{\"data\":{\"id\":2,\"email\":\"janet.weaver@reqres.in\",\"first_name\":\"Janet\",\"last_name\":\"Weaver\",\"avatar\":\"https:\/\/reqres.in\/img\/faces\/2-image.jpg\"},\"support\":{\"url\":\"https:\/\/reqres.in\/#support-heading\",\"text\":\"To keep ReqRes free, contributions towards server costs are appreciated!\"}}\n\n"},{"result":{"nanos":17900,"startTime":1727487081855,"endTime":1727487081855,"millis":0.0179,"status":"passed"},"step":{"line":6,"prefix":"Then","index":2,"text":"status 200"}},{"result":{"nanos":34822500,"startTime":1727487081855,"endTime":1727487081890,"millis":34.8225,"status":"passed"},"step":{"line":7,"prefix":"*","index":3,"text":"match response.data.id == 2"}},{"result":{"nanos":1776900,"startTime":1727487081890,"endTime":1727487081892,"millis":1.7769,"status":"passed"},"step":{"line":8,"prefix":"*","index":4,"text":"match response.data.email == 'janet.weaver@reqres.in'"}},{"result":{"nanos":38653300,"startTime":1727487081892,"endTime":1727487081931,"millis":38.6533,"status":"passed"},"step":{"comments":["#We are printing the Response of the API using the print keyword#"],"line":10,"prefix":"Then","index":5,"text":"print response"},"stepLog":"20:31:21.930 [print] {\n  \"data\": {\n    \"id\": 2,\n    \"email\": \"janet.weaver@reqres.in\",\n    \"first_name\": \"Janet\",\n    \"last_name\": \"Weaver\",\n    \"avatar\": \"https:\/\/reqres.in\/img\/faces\/2-image.jpg\"\n  },\n  \"support\": {\n    \"url\": \"https:\/\/reqres.in\/#support-heading\",\n    \"text\": \"To keep ReqRes free, contributions towards server costs are appreciated!\"\n  }\n}\n \n"}],"executorName":"main","line":2,"name":"testing the get one User Details","description":"","durationMillis":167.4663,"startTime":1727487081762,"failed":false,"refId":"[1:2]","endTime":1727487081930,"exampleIndex":-1},{"sectionIndex":1,"stepResults":[{"result":{"nanos":539200,"startTime":1727487081941,"endTime":1727487081942,"millis":0.5392,"status":"passed"},"step":{"line":13,"prefix":"Given","index":0,"text":"url 'https:\/\/reqres.in\/api\/users'"}},{"result":{"nanos":84849700,"startTime":1727487081943,"endTime":1727487082028,"millis":84.8497,"status":"passed"},"step":{"line":14,"prefix":"When","index":1,"text":"method GET"},"stepLog":"20:31:21.944 request:\n1 > GET https:\/\/reqres.in\/api\/users\n1 > Host: reqres.in\n1 > Connection: Keep-Alive\n1 > User-Agent: Apache-HttpClient\/4.5.11 (Java\/21.0.2)\n1 > Accept-Encoding: gzip,deflate\n\n\n20:31:22.026 response time in milliseconds: 81\n1 < 200\n1 < Date: Sat, 28 Sep 2024 01:31:22 GMT\n1 < Content-Type: application\/json; charset=utf-8\n1 < Transfer-Encoding: chunked\n1 < Connection: keep-alive\n1 < Report-To: {\"group\":\"heroku-nel\",\"max_age\":3600,\"endpoints\":[{\"url\":\"https:\/\/nel.heroku.com\/reports?ts=1727469949&sid=c4c9725f-1ab0-44d8-820f-430df2718e11&s=UtoKQIF%2FFARzbE7AuYDgWkQ%2Bq%2BXCR2AjRhs2LEjJJpk%3D\"}]}\n1 < Reporting-Endpoints: heroku-nel=https:\/\/nel.heroku.com\/reports?ts=1727469949&sid=c4c9725f-1ab0-44d8-820f-430df2718e11&s=UtoKQIF%2FFARzbE7AuYDgWkQ%2Bq%2BXCR2AjRhs2LEjJJpk%3D\n1 < Nel: {\"report_to\":\"heroku-nel\",\"max_age\":3600,\"success_fraction\":0.005,\"failure_fraction\":0.05,\"response_headers\":[\"Via\"]}\n1 < X-Powered-By: Express\n1 < Access-Control-Allow-Origin: *\n1 < Etag: W\/\"3e4-2RLXvr5wTg9YQ6aH95CkYoFNuO8\"\n1 < Via: 1.1 vegur\n1 < Cache-Control: max-age=14400\n1 < CF-Cache-Status: HIT\n1 < Age: 2310\n1 < Vary: Accept-Encoding\n1 < Server: cloudflare\n1 < CF-RAY: 8c9ff93aae062cb9-ORD\n{\"page\":1,\"per_page\":6,\"total\":12,\"total_pages\":2,\"data\":[{\"id\":1,\"email\":\"george.bluth@reqres.in\",\"first_name\":\"George\",\"last_name\":\"Bluth\",\"avatar\":\"https:\/\/reqres.in\/img\/faces\/1-image.jpg\"},{\"id\":2,\"email\":\"janet.weaver@reqres.in\",\"first_name\":\"Janet\",\"last_name\":\"Weaver\",\"avatar\":\"https:\/\/reqres.in\/img\/faces\/2-image.jpg\"},{\"id\":3,\"email\":\"emma.wong@reqres.in\",\"first_name\":\"Emma\",\"last_name\":\"Wong\",\"avatar\":\"https:\/\/reqres.in\/img\/faces\/3-image.jpg\"},{\"id\":4,\"email\":\"eve.holt@reqres.in\",\"first_name\":\"Eve\",\"last_name\":\"Holt\",\"avatar\":\"https:\/\/reqres.in\/img\/faces\/4-image.jpg\"},{\"id\":5,\"email\":\"charles.morris@reqres.in\",\"first_name\":\"Charles\",\"last_name\":\"Morris\",\"avatar\":\"https:\/\/reqres.in\/img\/faces\/5-image.jpg\"},{\"id\":6,\"email\":\"tracey.ramos@reqres.in\",\"first_name\":\"Tracey\",\"last_name\":\"Ramos\",\"avatar\":\"https:\/\/reqres.in\/img\/faces\/6-image.jpg\"}],\"support\":{\"url\":\"https:\/\/reqres.in\/#support-heading\",\"text\":\"To keep ReqRes free, contributions towards server costs are appreciated!\"}}\n\n"},{"result":{"nanos":17600,"startTime":1727487082027,"endTime":1727487082027,"millis":0.0176,"status":"passed"},"step":{"line":15,"prefix":"Then","index":2,"text":"status 200"}},{"result":{"nanos":1676600,"startTime":1727487082027,"endTime":1727487082029,"millis":1.6766,"status":"passed"},"step":{"line":16,"prefix":"*","index":3,"text":"match response.per_page == 6"}},{"result":{"nanos":3086900,"startTime":1727487082030,"endTime":1727487082033,"millis":3.0869,"status":"passed"},"step":{"line":17,"prefix":"*","index":4,"text":"match response.data[0].id == 1"}},{"result":{"nanos":1447000,"startTime":1727487082032,"endTime":1727487082033,"millis":1.447,"status":"passed"},"step":{"line":18,"prefix":"*","index":5,"text":"match response.data[0].email == \"george.bluth@reqres.in\""}},{"result":{"nanos":3011700,"startTime":1727487082034,"endTime":1727487082037,"millis":3.0117,"status":"passed"},"step":{"line":19,"prefix":"*","index":6,"text":"match response.data[*].id contains [1,2,3,4,5,6]"}},{"result":{"nanos":11105100,"startTime":1727487082038,"endTime":1727487082049,"millis":11.1051,"status":"passed"},"step":{"comments":["#Reading the file ExpectedOutput.json and storing same response in variable expectedResult"],"line":22,"prefix":"Given","index":7,"text":"expectedResult=read('.\/users.json')"}},{"result":{"nanos":1619500,"startTime":1727487082048,"endTime":1727487082050,"millis":1.6195,"status":"passed"},"step":{"comments":["#Asserting the Actual Response with the Expected Response"],"line":24,"prefix":"And","index":8,"text":"match response == expectedResult"}}],"executorName":"main","line":12,"name":"testing the get ALL User Details","description":"","durationMillis":107.3533,"startTime":1727487081941,"failed":false,"refId":"[2:12]","endTime":1727487082050,"exampleIndex":-1}],"callDepth":0,"name":"fetching User Details","description":"","resultDate":"2024-09-27 08:31:22 PM","durationMillis":274.8196,"passedCount":2}